{
  "$schema": "../../../node_modules/ng-packagr/ng-package.schema.json",
  "dest": "../../../dist/xw19/angular-editor",
  "deleteDestPath": false,
  "lib": {
    "entryFile": "src/public_api.ts"
  }
}